# MagicaVoxel @ Ephtracy

# material
mtllib car_body3.mtl
usemtl palette

# normals
vn -1 0 0
vn 1 0 0
vn 0 0 1
vn 0 0 -1
vn 0 -1 0
vn 0 1 0

# texcoords
vt 0.0449219 0.5
vt 0.587891 0.5
vt 0.841797 0.5
vt 0.962891 0.5

# verts
v -4 1 8
v -4 1 6
v -4 1 3
v -4 1 -3
v -4 1 -6
v -4 1 -8
v -4 2 8
v -4 2 7
v -4 2 1
v -4 2 -2
v -4 2 -7
v -4 2 -8
v -4 3 7
v -4 3 6
v -4 3 3
v -4 3 2
v -4 3 1
v -4 3 -2
v -4 3 -3
v -4 3 -6
v -4 3 -7
v -4 4 6
v -4 4 2
v -4 4 -3
v -4 4 -6
v -3 1 9
v -3 1 8
v -3 2 9
v -3 2 8
v -3 2 7
v -3 2 6
v -3 2 3
v -3 2 1
v -3 2 -2
v -3 2 -3
v -3 2 -6
v -3 2 -7
v -3 2 -8
v -3 3 8
v -3 3 7
v -3 3 6
v -3 3 3
v -3 3 2
v -3 3 1
v -3 3 -2
v -3 3 -3
v -3 3 -6
v -3 3 -7
v -3 3 -8
v -3 4 3
v -3 4 2
v -3 4 -3
v -3 4 -4
v -3 4 -6
v -3 4 -7
v -3 4 -8
v -3 5 3
v -3 5 2
v -3 5 -4
v -3 5 -6
v -2 4 -6
v -2 4 -7
v -2 5 2
v -2 5 1
v -2 5 -3
v -2 5 -4
v -2 5 -6
v -2 5 -7
v -2 6 2
v -2 6 1
v -2 6 -3
v -2 6 -6
v 3 1 8
v 3 1 6
v 3 1 3
v 3 1 -3
v 3 1 -6
v 3 1 -8
v 3 2 8
v 3 2 7
v 3 2 6
v 3 2 3
v 3 2 -3
v 3 2 -6
v 3 2 -8
v -3 1 8
v -3 1 6
v -3 1 3
v -3 1 -3
v -3 1 -6
v -3 1 -8
v -3 2 8
v -3 2 7
v -3 2 6
v -3 2 3
v -3 2 -3
v -3 2 -6
v -3 2 -8
v 2 4 -6
v 2 4 -7
v 2 5 2
v 2 5 1
v 2 5 -3
v 2 5 -4
v 2 5 -6
v 2 5 -7
v 2 6 2
v 2 6 1
v 2 6 -3
v 2 6 -6
v 3 1 9
v 3 1 8
v 3 2 9
v 3 2 8
v 3 2 7
v 3 2 6
v 3 2 3
v 3 2 1
v 3 2 -2
v 3 2 -3
v 3 2 -6
v 3 2 -7
v 3 2 -8
v 3 3 8
v 3 3 7
v 3 3 6
v 3 3 3
v 3 3 2
v 3 3 1
v 3 3 -2
v 3 3 -3
v 3 3 -6
v 3 3 -7
v 3 3 -8
v 3 4 3
v 3 4 2
v 3 4 -3
v 3 4 -4
v 3 4 -6
v 3 4 -7
v 3 4 -8
v 3 5 3
v 3 5 2
v 3 5 -4
v 3 5 -6
v 4 1 8
v 4 1 6
v 4 1 3
v 4 1 -3
v 4 1 -6
v 4 1 -8
v 4 2 8
v 4 2 7
v 4 2 1
v 4 2 -2
v 4 2 -7
v 4 2 -8
v 4 3 7
v 4 3 6
v 4 3 3
v 4 3 2
v 4 3 1
v 4 3 -2
v 4 3 -3
v 4 3 -6
v 4 3 -7
v 4 4 6
v 4 4 2
v 4 4 -3
v 4 4 -6
v -3 1 9
v -3 2 9
v 3 1 9
v 3 2 9
v -4 1 8
v -4 2 8
v -3 1 8
v -3 2 8
v -3 3 8
v -2 2 8
v -2 3 8
v 2 2 8
v 2 3 8
v 3 1 8
v 3 2 8
v 3 3 8
v 4 1 8
v 4 2 8
v -4 2 7
v -4 3 7
v -3 2 7
v -3 3 7
v 3 2 7
v 3 3 7
v 4 2 7
v 4 3 7
v -4 3 6
v -4 4 6
v 4 3 6
v 4 4 6
v -4 1 3
v -4 3 3
v -3 1 3
v -3 2 3
v -3 3 3
v -3 4 3
v -3 5 3
v -2 4 3
v -2 5 3
v 2 4 3
v 2 5 3
v 3 1 3
v 3 2 3
v 3 3 3
v 3 4 3
v 3 5 3
v 4 1 3
v 4 3 3
v -2 5 2
v -2 6 2
v -1 5 2
v -1 6 2
v 1 5 2
v 1 6 2
v 2 5 2
v 2 6 2
v -4 2 -2
v -4 3 -2
v -3 2 -2
v -3 3 -2
v 3 2 -2
v 3 3 -2
v 4 2 -2
v 4 3 -2
v -4 3 -3
v -4 4 -3
v -3 3 -3
v -3 4 -3
v 3 3 -3
v 3 4 -3
v 4 3 -3
v 4 4 -3
v -4 1 -6
v -4 3 -6
v -3 1 -6
v -3 2 -6
v -3 3 -6
v 3 1 -6
v 3 2 -6
v 3 3 -6
v 4 1 -6
v 4 3 -6
v -3 1 8
v -3 2 8
v -2 2 8
v 2 2 8
v 3 1 8
v 3 2 8
v -4 1 6
v -4 3 6
v -3 1 6
v -3 2 6
v -3 3 6
v 3 1 6
v 3 2 6
v 3 3 6
v 4 1 6
v 4 3 6
v -4 3 2
v -4 4 2
v -3 3 2
v -3 4 2
v 3 3 2
v 3 4 2
v 4 3 2
v 4 4 2
v -4 2 1
v -4 3 1
v -3 2 1
v -3 3 1
v 3 2 1
v 3 3 1
v 4 2 1
v 4 3 1
v -4 1 -3
v -4 3 -3
v -3 1 -3
v -3 2 -3
v -3 3 -3
v 3 1 -3
v 3 2 -3
v 3 3 -3
v 4 1 -3
v 4 3 -3
v -4 3 -6
v -4 4 -6
v -3 3 -6
v -3 4 -6
v -3 5 -6
v -2 4 -6
v -2 5 -6
v -2 6 -6
v -1 5 -6
v -1 6 -6
v 1 5 -6
v 1 6 -6
v 2 4 -6
v 2 5 -6
v 2 6 -6
v 3 3 -6
v 3 4 -6
v 3 5 -6
v 4 3 -6
v 4 4 -6
v -4 2 -7
v -4 3 -7
v -3 2 -7
v -3 3 -7
v -2 4 -7
v -2 5 -7
v -1 4 -7
v -1 5 -7
v 1 4 -7
v 1 5 -7
v 2 4 -7
v 2 5 -7
v 3 2 -7
v 3 3 -7
v 4 2 -7
v 4 3 -7
v -4 1 -8
v -4 2 -8
v -3 1 -8
v -3 2 -8
v -3 3 -8
v -3 4 -8
v -2 3 -8
v -2 4 -8
v 2 3 -8
v 2 4 -8
v 3 1 -8
v 3 2 -8
v 3 3 -8
v 3 4 -8
v 4 1 -8
v 4 2 -8
v -3 1 9
v 3 1 9
v -4 1 8
v -3 1 8
v 3 1 8
v 4 1 8
v -4 1 6
v -3 1 6
v 3 1 6
v 4 1 6
v -4 1 3
v -3 1 3
v 3 1 3
v 4 1 3
v -4 1 -3
v -3 1 -3
v 3 1 -3
v 4 1 -3
v -4 1 -6
v -3 1 -6
v 3 1 -6
v 4 1 -6
v -4 1 -8
v -3 1 -8
v 3 1 -8
v 4 1 -8
v -3 2 8
v -2 2 8
v 2 2 8
v 3 2 8
v -3 2 7
v -2 2 7
v 2 2 7
v 3 2 7
v -3 2 6
v 3 2 6
v -3 2 3
v 3 2 3
v -3 2 -3
v 3 2 -3
v -3 2 -6
v 3 2 -6
v -3 2 -8
v 3 2 -8
v -4 3 6
v -3 3 6
v 3 3 6
v 4 3 6
v -4 3 3
v -3 3 3
v 3 3 3
v 4 3 3
v -4 3 -3
v -3 3 -3
v 3 3 -3
v 4 3 -3
v -4 3 -6
v -3 3 -6
v 3 3 -6
v 4 3 -6
v -3 2 9
v 3 2 9
v -4 2 8
v -3 2 8
v -2 2 8
v 2 2 8
v 3 2 8
v 4 2 8
v -4 2 7
v -3 2 7
v 3 2 7
v 4 2 7
v -4 2 1
v -3 2 1
v 3 2 1
v 4 2 1
v -4 2 -2
v -3 2 -2
v 3 2 -2
v 4 2 -2
v -4 2 -7
v -3 2 -7
v 3 2 -7
v 4 2 -7
v -4 2 -8
v -3 2 -8
v 3 2 -8
v 4 2 -8
v -3 3 8
v -2 3 8
v 2 3 8
v 3 3 8
v -4 3 7
v -3 3 7
v -2 3 7
v 2 3 7
v 3 3 7
v 4 3 7
v -4 3 6
v 4 3 6
v -4 3 2
v -3 3 2
v 3 3 2
v 4 3 2
v -4 3 1
v -3 3 1
v 3 3 1
v 4 3 1
v -4 3 -2
v -3 3 -2
v 3 3 -2
v 4 3 -2
v -4 3 -3
v -3 3 -3
v 3 3 -3
v 4 3 -3
v -4 3 -6
v -3 3 -6
v 3 3 -6
v 4 3 -6
v -4 3 -7
v -3 3 -7
v 3 3 -7
v 4 3 -7
v -4 4 6
v 4 4 6
v -3 4 3
v -2 4 3
v 2 4 3
v 3 4 3
v -4 4 2
v -3 4 2
v 3 4 2
v 4 4 2
v -4 4 -3
v -3 4 -3
v 3 4 -3
v 4 4 -3
v -3 4 -4
v 3 4 -4
v -4 4 -6
v -3 4 -6
v -2 4 -6
v 2 4 -6
v 3 4 -6
v 4 4 -6
v -3 4 -7
v -2 4 -7
v -1 4 -7
v 1 4 -7
v 2 4 -7
v 3 4 -7
v -3 4 -8
v -2 4 -8
v 2 4 -8
v 3 4 -8
v -3 5 3
v -2 5 3
v 2 5 3
v 3 5 3
v -3 5 2
v -2 5 2
v -1 5 2
v 1 5 2
v 2 5 2
v 3 5 2
v -2 5 1
v 2 5 1
v -2 5 -3
v 2 5 -3
v -3 5 -4
v -2 5 -4
v 2 5 -4
v 3 5 -4
v -3 5 -6
v -2 5 -6
v -1 5 -6
v 1 5 -6
v 2 5 -6
v 3 5 -6
v -2 5 -7
v -1 5 -7
v 1 5 -7
v 2 5 -7
v -2 6 2
v -1 6 2
v 1 6 2
v 2 6 2
v -2 6 1
v -1 6 1
v 1 6 1
v 2 6 1
v -2 6 -3
v -1 6 -3
v 1 6 -3
v 2 6 -3
v -1 6 -5
v 1 6 -5
v -2 6 -6
v -1 6 -6
v 1 6 -6
v 2 6 -6

# faces
f 7/4/1 2/4/1 1/4/1
f 8/4/1 2/4/1 7/4/1
f 9/4/1 4/4/1 3/4/1
f 10/4/1 4/4/1 9/4/1
f 11/4/1 6/4/1 5/4/1
f 12/4/1 6/4/1 11/4/1
f 13/4/1 2/4/1 8/4/1
f 14/4/1 2/4/1 13/4/1
f 15/4/1 9/4/1 3/4/1
f 16/4/1 9/4/1 15/4/1
f 17/4/1 9/4/1 16/4/1
f 18/4/1 4/4/1 10/4/1
f 19/4/1 4/4/1 18/4/1
f 20/4/1 11/4/1 5/4/1
f 21/4/1 11/4/1 20/4/1
f 22/4/1 15/4/1 14/4/1
f 22/4/1 16/4/1 15/4/1
f 23/4/1 16/4/1 22/4/1
f 24/4/1 20/4/1 19/4/1
f 25/4/1 20/4/1 24/4/1
f 28/4/1 27/4/1 26/4/1
f 29/4/1 27/4/1 28/4/1
f 39/1/1 30/1/1 29/1/1
f 40/1/1 30/1/1 39/1/1
f 41/4/1 32/4/1 31/4/1
f 42/4/1 32/4/1 41/4/1
f 44/4/1 34/4/1 33/4/1
f 45/4/1 34/4/1 44/4/1
f 46/4/1 36/4/1 35/4/1
f 47/4/1 36/4/1 46/4/1
f 48/4/1 38/4/1 37/4/1
f 49/4/1 38/4/1 48/4/1
f 51/4/1 45/4/1 44/4/1
f 51/4/1 44/4/1 43/4/1
f 51/4/1 46/4/1 45/4/1
f 52/4/1 46/4/1 51/4/1
f 54/4/1 48/4/1 47/4/1
f 55/3/1 49/3/1 48/3/1
f 55/4/1 48/4/1 54/4/1
f 56/3/1 49/3/1 55/3/1
f 57/4/1 51/4/1 50/4/1
f 58/2/1 53/2/1 52/2/1
f 58/4/1 51/4/1 57/4/1
f 58/2/1 52/2/1 51/2/1
f 59/4/1 54/4/1 53/4/1
f 59/2/1 53/2/1 58/2/1
f 60/4/1 54/4/1 59/4/1
f 67/4/1 62/4/1 61/4/1
f 68/4/1 62/4/1 67/4/1
f 69/4/1 64/4/1 63/4/1
f 70/2/1 65/2/1 64/2/1
f 70/4/1 64/4/1 69/4/1
f 71/4/1 66/4/1 65/4/1
f 71/2/1 65/2/1 70/2/1
f 71/4/1 67/4/1 66/4/1
f 72/4/1 67/4/1 71/4/1
f 79/4/1 74/4/1 73/4/1
f 80/4/1 74/4/1 79/4/1
f 81/4/1 74/4/1 80/4/1
f 82/4/1 76/4/1 75/4/1
f 83/4/1 76/4/1 82/4/1
f 84/4/1 78/4/1 77/4/1
f 85/4/1 78/4/1 84/4/1
f 86/4/2 87/4/2 92/4/2
f 92/4/2 87/4/2 93/4/2
f 93/4/2 87/4/2 94/4/2
f 88/4/2 89/4/2 95/4/2
f 95/4/2 89/4/2 96/4/2
f 90/4/2 91/4/2 97/4/2
f 97/4/2 91/4/2 98/4/2
f 99/4/2 100/4/2 105/4/2
f 105/4/2 100/4/2 106/4/2
f 101/4/2 102/4/2 107/4/2
f 102/2/2 103/2/2 108/2/2
f 107/4/2 102/4/2 108/4/2
f 103/4/2 104/4/2 109/4/2
f 108/2/2 103/2/2 109/2/2
f 104/4/2 105/4/2 109/4/2
f 109/4/2 105/4/2 110/4/2
f 111/4/2 112/4/2 113/4/2
f 113/4/2 112/4/2 114/4/2
f 114/1/2 115/1/2 124/1/2
f 124/1/2 115/1/2 125/1/2
f 116/4/2 117/4/2 126/4/2
f 126/4/2 117/4/2 127/4/2
f 118/4/2 119/4/2 129/4/2
f 129/4/2 119/4/2 130/4/2
f 120/4/2 121/4/2 131/4/2
f 131/4/2 121/4/2 132/4/2
f 122/4/2 123/4/2 133/4/2
f 133/4/2 123/4/2 134/4/2
f 129/4/2 130/4/2 136/4/2
f 128/4/2 129/4/2 136/4/2
f 130/4/2 131/4/2 136/4/2
f 136/4/2 131/4/2 137/4/2
f 132/4/2 133/4/2 139/4/2
f 133/3/2 134/3/2 140/3/2
f 139/4/2 133/4/2 140/4/2
f 140/3/2 134/3/2 141/3/2
f 135/4/2 136/4/2 142/4/2
f 137/2/2 138/2/2 143/2/2
f 142/4/2 136/4/2 143/4/2
f 136/2/2 137/2/2 143/2/2
f 138/4/2 139/4/2 144/4/2
f 143/2/2 138/2/2 144/2/2
f 144/4/2 139/4/2 145/4/2
f 146/4/2 147/4/2 152/4/2
f 152/4/2 147/4/2 153/4/2
f 148/4/2 149/4/2 154/4/2
f 154/4/2 149/4/2 155/4/2
f 150/4/2 151/4/2 156/4/2
f 156/4/2 151/4/2 157/4/2
f 153/4/2 147/4/2 158/4/2
f 158/4/2 147/4/2 159/4/2
f 148/4/2 154/4/2 160/4/2
f 160/4/2 154/4/2 161/4/2
f 161/4/2 154/4/2 162/4/2
f 155/4/2 149/4/2 163/4/2
f 163/4/2 149/4/2 164/4/2
f 150/4/2 156/4/2 165/4/2
f 165/4/2 156/4/2 166/4/2
f 159/4/2 160/4/2 167/4/2
f 160/4/2 161/4/2 167/4/2
f 167/4/2 161/4/2 168/4/2
f 164/4/2 165/4/2 169/4/2
f 169/4/2 165/4/2 170/4/2
f 173/4/3 172/4/3 171/4/3
f 174/4/3 172/4/3 173/4/3
f 177/4/3 176/4/3 175/4/3
f 178/4/3 176/4/3 177/4/3
f 180/1/3 179/1/3 178/1/3
f 181/1/3 179/1/3 180/1/3
f 182/4/3 181/4/3 180/4/3
f 183/4/3 181/4/3 182/4/3
f 185/1/3 183/1/3 182/1/3
f 186/1/3 183/1/3 185/1/3
f 187/4/3 185/4/3 184/4/3
f 188/4/3 185/4/3 187/4/3
f 191/4/3 190/4/3 189/4/3
f 192/4/3 190/4/3 191/4/3
f 195/4/3 194/4/3 193/4/3
f 196/4/3 194/4/3 195/4/3
f 199/4/3 198/4/3 197/4/3
f 200/4/3 198/4/3 199/4/3
f 203/4/3 202/4/3 201/4/3
f 204/4/3 202/4/3 203/4/3
f 205/4/3 202/4/3 204/4/3
f 208/4/3 207/4/3 206/4/3
f 209/4/3 207/4/3 208/4/3
f 210/2/3 209/2/3 208/2/3
f 211/2/3 209/2/3 210/2/3
f 215/4/3 211/4/3 210/4/3
f 216/4/3 211/4/3 215/4/3
f 217/4/3 214/4/3 213/4/3
f 217/4/3 213/4/3 212/4/3
f 218/4/3 214/4/3 217/4/3
f 221/4/3 220/4/3 219/4/3
f 222/4/3 220/4/3 221/4/3
f 223/2/3 222/2/3 221/2/3
f 224/2/3 222/2/3 223/2/3
f 225/4/3 224/4/3 223/4/3
f 226/4/3 224/4/3 225/4/3
f 229/4/3 228/4/3 227/4/3
f 230/4/3 228/4/3 229/4/3
f 233/4/3 232/4/3 231/4/3
f 234/4/3 232/4/3 233/4/3
f 237/4/3 236/4/3 235/4/3
f 238/4/3 236/4/3 237/4/3
f 241/4/3 240/4/3 239/4/3
f 242/4/3 240/4/3 241/4/3
f 245/4/3 244/4/3 243/4/3
f 246/4/3 244/4/3 245/4/3
f 247/4/3 244/4/3 246/4/3
f 251/4/3 249/4/3 248/4/3
f 251/4/3 250/4/3 249/4/3
f 252/4/3 250/4/3 251/4/3
f 253/4/4 254/4/4 255/4/4
f 253/4/4 255/4/4 256/4/4
f 253/4/4 256/4/4 257/4/4
f 257/4/4 256/4/4 258/4/4
f 259/4/4 260/4/4 261/4/4
f 261/4/4 260/4/4 262/4/4
f 262/4/4 260/4/4 263/4/4
f 264/4/4 265/4/4 267/4/4
f 265/4/4 266/4/4 267/4/4
f 267/4/4 266/4/4 268/4/4
f 269/4/4 270/4/4 271/4/4
f 271/4/4 270/4/4 272/4/4
f 273/4/4 274/4/4 275/4/4
f 275/4/4 274/4/4 276/4/4
f 277/4/4 278/4/4 279/4/4
f 279/4/4 278/4/4 280/4/4
f 281/4/4 282/4/4 283/4/4
f 283/4/4 282/4/4 284/4/4
f 285/4/4 286/4/4 287/4/4
f 287/4/4 286/4/4 288/4/4
f 288/4/4 286/4/4 289/4/4
f 290/4/4 291/4/4 293/4/4
f 291/4/4 292/4/4 293/4/4
f 293/4/4 292/4/4 294/4/4
f 295/4/4 296/4/4 297/4/4
f 297/4/4 296/4/4 298/4/4
f 298/4/4 299/4/4 300/4/4
f 300/4/4 299/4/4 301/4/4
f 301/4/4 302/4/4 303/4/4
f 303/4/4 302/4/4 304/4/4
f 303/2/4 304/2/4 305/2/4
f 305/2/4 304/2/4 306/2/4
f 305/4/4 306/4/4 308/4/4
f 308/4/4 306/4/4 309/4/4
f 307/4/4 308/4/4 311/4/4
f 311/4/4 308/4/4 312/4/4
f 310/4/4 311/4/4 313/4/4
f 313/4/4 311/4/4 314/4/4
f 315/4/4 316/4/4 317/4/4
f 317/4/4 316/4/4 318/4/4
f 319/4/4 320/4/4 321/4/4
f 321/4/4 320/4/4 322/4/4
f 321/2/4 322/2/4 323/2/4
f 323/2/4 322/2/4 324/2/4
f 323/4/4 324/4/4 325/4/4
f 325/4/4 324/4/4 326/4/4
f 327/4/4 328/4/4 329/4/4
f 329/4/4 328/4/4 330/4/4
f 331/4/4 332/4/4 333/4/4
f 333/4/4 332/4/4 334/4/4
f 335/3/4 336/3/4 337/3/4
f 334/4/4 335/4/4 337/4/4
f 337/3/4 336/3/4 338/3/4
f 334/4/4 337/4/4 339/4/4
f 337/4/4 338/4/4 339/4/4
f 339/4/4 338/4/4 340/4/4
f 334/4/4 339/4/4 342/4/4
f 339/3/4 340/3/4 343/3/4
f 342/4/4 339/4/4 343/4/4
f 343/3/4 340/3/4 344/3/4
f 341/4/4 342/4/4 345/4/4
f 345/4/4 342/4/4 346/4/4
f 350/4/5 348/4/5 347/4/5
f 351/4/5 348/4/5 350/4/5
f 353/4/5 350/4/5 349/4/5
f 354/4/5 350/4/5 353/4/5
f 355/4/5 352/4/5 351/4/5
f 356/4/5 352/4/5 355/4/5
f 361/4/5 358/4/5 357/4/5
f 362/4/5 358/4/5 361/4/5
f 363/4/5 360/4/5 359/4/5
f 364/4/5 360/4/5 363/4/5
f 369/4/5 366/4/5 365/4/5
f 370/4/5 366/4/5 369/4/5
f 371/4/5 368/4/5 367/4/5
f 372/4/5 368/4/5 371/4/5
f 377/1/5 374/1/5 373/1/5
f 378/4/5 375/4/5 374/4/5
f 378/1/5 374/1/5 377/1/5
f 379/1/5 376/1/5 375/1/5
f 379/4/5 375/4/5 378/4/5
f 380/1/5 376/1/5 379/1/5
f 381/4/5 378/4/5 377/4/5
f 381/4/5 379/4/5 378/4/5
f 381/4/5 380/4/5 379/4/5
f 382/4/5 380/4/5 381/4/5
f 383/4/5 382/4/5 381/4/5
f 384/4/5 382/4/5 383/4/5
f 385/4/5 384/4/5 383/4/5
f 386/4/5 384/4/5 385/4/5
f 387/4/5 386/4/5 385/4/5
f 388/4/5 386/4/5 387/4/5
f 389/4/5 388/4/5 387/4/5
f 390/4/5 388/4/5 389/4/5
f 395/4/5 392/4/5 391/4/5
f 396/4/5 392/4/5 395/4/5
f 397/4/5 394/4/5 393/4/5
f 398/4/5 394/4/5 397/4/5
f 403/4/5 400/4/5 399/4/5
f 404/4/5 400/4/5 403/4/5
f 405/4/5 402/4/5 401/4/5
f 406/4/5 402/4/5 405/4/5
f 407/4/6 408/4/6 410/4/6
f 410/4/6 408/4/6 411/4/6
f 411/4/6 408/4/6 412/4/6
f 412/4/6 408/4/6 413/4/6
f 409/4/6 410/4/6 415/4/6
f 415/4/6 410/4/6 416/4/6
f 413/4/6 414/4/6 417/4/6
f 417/4/6 414/4/6 418/4/6
f 419/4/6 420/4/6 423/4/6
f 423/4/6 420/4/6 424/4/6
f 421/4/6 422/4/6 425/4/6
f 425/4/6 422/4/6 426/4/6
f 427/4/6 428/4/6 431/4/6
f 431/4/6 428/4/6 432/4/6
f 429/4/6 430/4/6 433/4/6
f 433/4/6 430/4/6 434/4/6
f 435/1/6 436/1/6 440/1/6
f 436/4/6 437/4/6 441/4/6
f 440/1/6 436/1/6 441/1/6
f 437/1/6 438/1/6 442/1/6
f 441/4/6 437/4/6 442/4/6
f 442/1/6 438/1/6 443/1/6
f 440/4/6 441/4/6 445/4/6
f 443/4/6 444/4/6 445/4/6
f 442/4/6 443/4/6 445/4/6
f 441/4/6 442/4/6 445/4/6
f 439/4/6 440/4/6 445/4/6
f 445/4/6 444/4/6 446/4/6
f 447/4/6 448/4/6 451/4/6
f 451/4/6 448/4/6 452/4/6
f 449/4/6 450/4/6 453/4/6
f 453/4/6 450/4/6 454/4/6
f 455/4/6 456/4/6 459/4/6
f 459/4/6 456/4/6 460/4/6
f 457/4/6 458/4/6 461/4/6
f 461/4/6 458/4/6 462/4/6
f 463/4/6 464/4/6 467/4/6
f 467/4/6 464/4/6 468/4/6
f 465/4/6 466/4/6 469/4/6
f 469/4/6 466/4/6 470/4/6
f 471/4/6 472/4/6 473/4/6
f 473/4/6 472/4/6 474/4/6
f 474/4/6 472/4/6 475/4/6
f 475/4/6 472/4/6 476/4/6
f 471/4/6 473/4/6 477/4/6
f 477/4/6 473/4/6 478/4/6
f 476/4/6 472/4/6 479/4/6
f 479/4/6 472/4/6 480/4/6
f 481/4/6 482/4/6 485/4/6
f 483/4/6 484/4/6 486/4/6
f 481/4/6 485/4/6 487/4/6
f 487/4/6 485/4/6 488/4/6
f 486/4/6 484/4/6 491/4/6
f 491/4/6 484/4/6 492/4/6
f 488/4/6 489/4/6 493/4/6
f 493/4/6 489/4/6 494/4/6
f 490/4/6 491/4/6 497/4/6
f 497/4/6 491/4/6 498/4/6
f 493/3/6 494/3/6 499/3/6
f 495/4/6 496/4/6 500/4/6
f 499/3/6 494/3/6 500/3/6
f 494/4/6 495/4/6 500/4/6
f 496/4/6 497/4/6 500/4/6
f 497/3/6 498/3/6 501/3/6
f 500/4/6 497/4/6 501/4/6
f 501/3/6 498/3/6 502/3/6
f 503/4/6 504/4/6 507/4/6
f 504/2/6 505/2/6 508/2/6
f 507/4/6 504/4/6 508/4/6
f 508/2/6 505/2/6 509/2/6
f 509/2/6 505/2/6 510/2/6
f 505/4/6 506/4/6 511/4/6
f 510/2/6 505/2/6 511/2/6
f 511/4/6 506/4/6 512/4/6
f 507/2/6 508/2/6 513/2/6
f 511/2/6 512/2/6 514/2/6
f 507/2/6 513/2/6 515/2/6
f 514/2/6 512/2/6 516/2/6
f 507/2/6 515/2/6 517/2/6
f 517/2/6 515/2/6 518/2/6
f 516/2/6 512/2/6 519/2/6
f 519/2/6 512/2/6 520/2/6
f 517/4/6 518/4/6 521/4/6
f 521/4/6 518/4/6 522/4/6
f 519/4/6 520/4/6 525/4/6
f 525/4/6 520/4/6 526/4/6
f 522/4/6 523/4/6 527/4/6
f 523/2/6 524/2/6 528/2/6
f 527/4/6 523/4/6 528/4/6
f 524/4/6 525/4/6 529/4/6
f 528/2/6 524/2/6 529/2/6
f 529/4/6 525/4/6 530/4/6
f 531/4/6 532/4/6 535/4/6
f 532/2/6 533/2/6 536/2/6
f 535/4/6 532/4/6 536/4/6
f 533/4/6 534/4/6 537/4/6
f 536/2/6 533/2/6 537/2/6
f 537/4/6 534/4/6 538/4/6
f 535/2/6 536/2/6 539/2/6
f 536/4/6 537/4/6 540/4/6
f 539/2/6 536/2/6 540/2/6
f 537/2/6 538/2/6 541/2/6
f 540/4/6 537/4/6 541/4/6
f 541/2/6 538/2/6 542/2/6
f 539/4/6 540/4/6 543/4/6
f 540/4/6 541/4/6 543/4/6
f 541/4/6 542/4/6 543/4/6
f 543/4/6 542/4/6 544/4/6
f 539/4/6 543/4/6 545/4/6
f 543/2/6 544/2/6 546/2/6
f 545/4/6 543/4/6 546/4/6
f 544/4/6 542/4/6 547/4/6
f 546/2/6 544/2/6 547/2/6
f 547/4/6 542/4/6 548/4/6
