# MagicaVoxel @ Ephtracy

# material
mtllib car_body0_r.mtl
usemtl palette

# normals
vn -1 0 0
vn 1 0 0
vn 0 0 1
vn 0 0 -1
vn 0 -1 0
vn 0 1 0

# texcoords
vt 0.0449219 0.5
vt 0.587891 0.5
vt 0.841797 0.5
vt 0.849609 0.5

# verts
v -4 1 9
v -4 1 6
v -4 1 3
v -4 1 -3
v -4 1 -6
v -4 1 -9
v -4 3 9
v -4 3 8
v -4 3 6
v -4 3 3
v -4 3 -3
v -4 3 -6
v -4 3 -8
v -4 3 -9
v -4 4 8
v -4 4 -8
v -3 2 6
v -3 2 3
v -3 2 -3
v -3 2 -6
v -3 3 6
v -3 3 3
v -3 3 -3
v -3 3 -6
v -3 4 5
v -3 4 4
v -3 4 -0
v -3 4 -1
v -3 4 -5
v -3 4 -6
v -3 5 -4
v -3 5 -5
v -3 5 -6
v -3 6 5
v -3 6 4
v -3 6 -0
v -3 6 -1
v -3 6 -4
v -3 6 -5
v -3 7 4
v -3 7 -4
v 3 1 8
v 3 1 6
v 3 1 3
v 3 1 -3
v 3 1 -6
v 3 1 -8
v 3 2 8
v 3 2 6
v 3 2 3
v 3 2 -3
v 3 2 -6
v 3 2 -8
v -3 1 8
v -3 1 6
v -3 1 3
v -3 1 -3
v -3 1 -6
v -3 1 -8
v -3 2 8
v -3 2 6
v -3 2 3
v -3 2 -3
v -3 2 -6
v -3 2 -8
v 3 2 6
v 3 2 3
v 3 2 -3
v 3 2 -6
v 3 3 6
v 3 3 3
v 3 3 -3
v 3 3 -6
v 3 4 5
v 3 4 4
v 3 4 -0
v 3 4 -1
v 3 4 -5
v 3 4 -6
v 3 5 -4
v 3 5 -5
v 3 5 -6
v 3 6 5
v 3 6 4
v 3 6 -0
v 3 6 -1
v 3 6 -4
v 3 6 -5
v 3 7 4
v 3 7 -4
v 4 1 9
v 4 1 6
v 4 1 3
v 4 1 -3
v 4 1 -6
v 4 1 -9
v 4 3 9
v 4 3 8
v 4 3 6
v 4 3 3
v 4 3 -3
v 4 3 -6
v 4 3 -8
v 4 3 -9
v 4 4 8
v 4 4 -8
v -4 1 9
v -4 3 9
v -3 2 9
v -3 3 9
v -1 2 9
v -1 3 9
v 1 2 9
v 1 3 9
v 3 2 9
v 3 3 9
v 4 1 9
v 4 3 9
v -4 3 8
v -4 4 8
v -3 3 8
v -1 3 8
v 1 3 8
v 3 3 8
v 4 3 8
v 4 4 8
v -3 4 5
v -3 6 5
v -2 4 5
v -2 6 5
v 2 4 5
v 2 6 5
v 3 4 5
v 3 6 5
v -3 6 4
v -3 7 4
v -2 6 4
v 2 6 4
v 3 6 4
v 3 7 4
v -4 1 3
v -4 3 3
v -3 1 3
v -3 2 3
v -3 3 3
v 3 1 3
v 3 2 3
v 3 3 3
v 4 1 3
v 4 3 3
v -4 1 -6
v -4 3 -6
v -3 1 -6
v -3 2 -6
v -3 3 -6
v 3 1 -6
v 3 2 -6
v 3 3 -6
v 4 1 -6
v 4 3 -6
v -3 1 -8
v -3 2 -8
v 3 1 -8
v 3 2 -8
v -3 1 8
v -3 2 8
v 3 1 8
v 3 2 8
v -4 1 6
v -4 3 6
v -3 1 6
v -3 2 6
v -3 3 6
v 3 1 6
v 3 2 6
v 3 3 6
v 4 1 6
v 4 3 6
v -4 1 -3
v -4 3 -3
v -3 1 -3
v -3 2 -3
v -3 3 -3
v 3 1 -3
v 3 2 -3
v 3 3 -3
v 4 1 -3
v 4 3 -3
v -3 6 -4
v -3 7 -4
v -2 6 -4
v 2 6 -4
v 3 6 -4
v 3 7 -4
v -3 5 -5
v -3 6 -5
v -2 5 -5
v -2 6 -5
v 2 5 -5
v 2 6 -5
v 3 5 -5
v 3 6 -5
v -3 4 -6
v -3 5 -6
v -2 4 -6
v -2 5 -6
v 2 4 -6
v 2 5 -6
v 3 4 -6
v 3 5 -6
v -4 3 -8
v -4 4 -8
v -3 3 -8
v -2 3 -8
v 2 3 -8
v 3 3 -8
v 4 3 -8
v 4 4 -8
v -4 1 -9
v -4 3 -9
v -3 2 -9
v -3 3 -9
v -2 2 -9
v -2 3 -9
v 2 2 -9
v 2 3 -9
v 3 2 -9
v 3 3 -9
v 4 1 -9
v 4 3 -9
v -4 1 9
v 4 1 9
v -3 1 8
v 3 1 8
v -4 1 6
v -3 1 6
v 3 1 6
v 4 1 6
v -4 1 3
v -3 1 3
v 3 1 3
v 4 1 3
v -4 1 -3
v -3 1 -3
v 3 1 -3
v 4 1 -3
v -4 1 -6
v -3 1 -6
v 3 1 -6
v 4 1 -6
v -3 1 -8
v 3 1 -8
v -4 1 -9
v 4 1 -9
v -3 2 8
v 3 2 8
v -3 2 6
v 3 2 6
v -3 2 3
v 3 2 3
v -3 2 -3
v 3 2 -3
v -3 2 -6
v 3 2 -6
v -3 2 -8
v 3 2 -8
v -4 3 6
v -3 3 6
v 3 3 6
v 4 3 6
v -4 3 3
v -3 3 3
v 3 3 3
v 4 3 3
v -4 3 -3
v -3 3 -3
v 3 3 -3
v 4 3 -3
v -4 3 -6
v -3 3 -6
v 3 3 -6
v 4 3 -6
v -4 3 9
v -3 3 9
v -1 3 9
v 1 3 9
v 3 3 9
v 4 3 9
v -4 3 8
v -3 3 8
v -1 3 8
v 1 3 8
v 3 3 8
v 4 3 8
v -4 3 -8
v -3 3 -8
v -2 3 -8
v 2 3 -8
v 3 3 -8
v 4 3 -8
v -4 3 -9
v -3 3 -9
v -2 3 -9
v 2 3 -9
v 3 3 -9
v 4 3 -9
v -4 4 8
v 4 4 8
v -3 4 5
v -2 4 5
v 2 4 5
v 3 4 5
v -3 4 4
v 3 4 4
v -3 4 -0
v 3 4 -0
v -3 4 -1
v 3 4 -1
v -3 4 -5
v 3 4 -5
v -3 4 -6
v -2 4 -6
v 2 4 -6
v 3 4 -6
v -4 4 -8
v 4 4 -8
v -3 5 -5
v -2 5 -5
v 2 5 -5
v 3 5 -5
v -3 5 -6
v -2 5 -6
v 2 5 -6
v 3 5 -6
v -3 6 5
v -2 6 5
v 2 6 5
v 3 6 5
v -3 6 4
v -2 6 4
v 2 6 4
v 3 6 4
v -3 6 -4
v -2 6 -4
v 2 6 -4
v 3 6 -4
v -3 6 -5
v -2 6 -5
v 2 6 -5
v 3 6 -5
v -3 7 4
v 3 7 4
v -3 7 -4
v 3 7 -4

# faces
f 7/4/1 2/4/1 1/4/1
f 8/4/1 2/4/1 7/4/1
f 9/4/1 2/4/1 8/4/1
f 10/4/1 4/4/1 3/4/1
f 11/4/1 4/4/1 10/4/1
f 12/4/1 6/4/1 5/4/1
f 13/4/1 6/4/1 12/4/1
f 14/4/1 6/4/1 13/4/1
f 15/4/1 11/4/1 10/4/1
f 15/4/1 9/4/1 8/4/1
f 15/4/1 13/4/1 12/4/1
f 15/4/1 12/4/1 11/4/1
f 15/4/1 10/4/1 9/4/1
f 16/4/1 13/4/1 15/4/1
f 21/4/1 18/4/1 17/4/1
f 22/4/1 18/4/1 21/4/1
f 23/4/1 20/4/1 19/4/1
f 24/4/1 20/4/1 23/4/1
f 31/2/1 29/2/1 28/2/1
f 32/4/1 30/4/1 29/4/1
f 32/2/1 29/2/1 31/2/1
f 33/4/1 30/4/1 32/4/1
f 34/4/1 26/4/1 25/4/1
f 35/2/1 27/2/1 26/2/1
f 35/4/1 26/4/1 34/4/1
f 36/4/1 28/4/1 27/4/1
f 36/2/1 27/2/1 35/2/1
f 37/2/1 31/2/1 28/2/1
f 37/4/1 28/4/1 36/4/1
f 38/4/1 32/4/1 31/4/1
f 38/2/1 31/2/1 37/2/1
f 39/4/1 32/4/1 38/4/1
f 40/4/1 36/4/1 35/4/1
f 40/4/1 38/4/1 37/4/1
f 40/4/1 37/4/1 36/4/1
f 41/4/1 38/4/1 40/4/1
f 48/4/1 43/4/1 42/4/1
f 49/4/1 43/4/1 48/4/1
f 50/4/1 45/4/1 44/4/1
f 51/4/1 45/4/1 50/4/1
f 52/4/1 47/4/1 46/4/1
f 53/4/1 47/4/1 52/4/1
f 54/4/2 55/4/2 60/4/2
f 60/4/2 55/4/2 61/4/2
f 56/4/2 57/4/2 62/4/2
f 62/4/2 57/4/2 63/4/2
f 58/4/2 59/4/2 64/4/2
f 64/4/2 59/4/2 65/4/2
f 66/4/2 67/4/2 70/4/2
f 70/4/2 67/4/2 71/4/2
f 68/4/2 69/4/2 72/4/2
f 72/4/2 69/4/2 73/4/2
f 77/2/2 78/2/2 80/2/2
f 78/4/2 79/4/2 81/4/2
f 80/2/2 78/2/2 81/2/2
f 81/4/2 79/4/2 82/4/2
f 74/4/2 75/4/2 83/4/2
f 75/2/2 76/2/2 84/2/2
f 83/4/2 75/4/2 84/4/2
f 76/4/2 77/4/2 85/4/2
f 84/2/2 76/2/2 85/2/2
f 77/2/2 80/2/2 86/2/2
f 85/4/2 77/4/2 86/4/2
f 80/4/2 81/4/2 87/4/2
f 86/2/2 80/2/2 87/2/2
f 87/4/2 81/4/2 88/4/2
f 84/4/2 85/4/2 89/4/2
f 86/4/2 87/4/2 89/4/2
f 85/4/2 86/4/2 89/4/2
f 89/4/2 87/4/2 90/4/2
f 91/4/2 92/4/2 97/4/2
f 97/4/2 92/4/2 98/4/2
f 98/4/2 92/4/2 99/4/2
f 93/4/2 94/4/2 100/4/2
f 100/4/2 94/4/2 101/4/2
f 95/4/2 96/4/2 102/4/2
f 102/4/2 96/4/2 103/4/2
f 103/4/2 96/4/2 104/4/2
f 100/4/2 101/4/2 105/4/2
f 98/4/2 99/4/2 105/4/2
f 102/4/2 103/4/2 105/4/2
f 101/4/2 102/4/2 105/4/2
f 99/4/2 100/4/2 105/4/2
f 105/4/2 103/4/2 106/4/2
f 109/4/3 108/4/3 107/4/3
f 110/4/3 108/4/3 109/4/3
f 111/4/3 109/4/3 107/4/3
f 111/1/3 110/1/3 109/1/3
f 112/1/3 110/1/3 111/1/3
f 113/4/3 111/4/3 107/4/3
f 113/4/3 112/4/3 111/4/3
f 114/4/3 112/4/3 113/4/3
f 115/4/3 113/4/3 107/4/3
f 115/1/3 114/1/3 113/1/3
f 116/1/3 114/1/3 115/1/3
f 117/4/3 115/4/3 107/4/3
f 117/4/3 116/4/3 115/4/3
f 118/4/3 116/4/3 117/4/3
f 121/4/3 120/4/3 119/4/3
f 122/4/3 120/4/3 121/4/3
f 123/4/3 120/4/3 122/4/3
f 124/4/3 120/4/3 123/4/3
f 125/4/3 120/4/3 124/4/3
f 126/4/3 120/4/3 125/4/3
f 129/4/3 128/4/3 127/4/3
f 130/4/3 128/4/3 129/4/3
f 131/2/3 130/2/3 129/2/3
f 132/2/3 130/2/3 131/2/3
f 133/4/3 132/4/3 131/4/3
f 134/4/3 132/4/3 133/4/3
f 137/4/3 136/4/3 135/4/3
f 138/4/3 136/4/3 137/4/3
f 139/4/3 136/4/3 138/4/3
f 140/4/3 136/4/3 139/4/3
f 143/4/3 142/4/3 141/4/3
f 144/4/3 142/4/3 143/4/3
f 145/4/3 142/4/3 144/4/3
f 149/4/3 147/4/3 146/4/3
f 149/4/3 148/4/3 147/4/3
f 150/4/3 148/4/3 149/4/3
f 153/4/3 152/4/3 151/4/3
f 154/4/3 152/4/3 153/4/3
f 155/4/3 152/4/3 154/4/3
f 159/4/3 157/4/3 156/4/3
f 159/4/3 158/4/3 157/4/3
f 160/4/3 158/4/3 159/4/3
f 163/4/3 162/4/3 161/4/3
f 164/4/3 162/4/3 163/4/3
f 165/4/4 166/4/4 167/4/4
f 167/4/4 166/4/4 168/4/4
f 169/4/4 170/4/4 171/4/4
f 171/4/4 170/4/4 172/4/4
f 172/4/4 170/4/4 173/4/4
f 174/4/4 175/4/4 177/4/4
f 175/4/4 176/4/4 177/4/4
f 177/4/4 176/4/4 178/4/4
f 179/4/4 180/4/4 181/4/4
f 181/4/4 180/4/4 182/4/4
f 182/4/4 180/4/4 183/4/4
f 184/4/4 185/4/4 187/4/4
f 185/4/4 186/4/4 187/4/4
f 187/4/4 186/4/4 188/4/4
f 189/4/4 190/4/4 191/4/4
f 191/4/4 190/4/4 192/4/4
f 192/4/4 190/4/4 193/4/4
f 193/4/4 190/4/4 194/4/4
f 195/4/4 196/4/4 197/4/4
f 197/4/4 196/4/4 198/4/4
f 197/2/4 198/2/4 199/2/4
f 199/2/4 198/2/4 200/2/4
f 199/4/4 200/4/4 201/4/4
f 201/4/4 200/4/4 202/4/4
f 203/4/4 204/4/4 205/4/4
f 205/4/4 204/4/4 206/4/4
f 205/2/4 206/2/4 207/2/4
f 207/2/4 206/2/4 208/2/4
f 207/4/4 208/4/4 209/4/4
f 209/4/4 208/4/4 210/4/4
f 211/4/4 212/4/4 213/4/4
f 213/4/4 212/4/4 214/4/4
f 214/4/4 212/4/4 215/4/4
f 215/4/4 212/4/4 216/4/4
f 216/4/4 212/4/4 217/4/4
f 217/4/4 212/4/4 218/4/4
f 219/4/4 220/4/4 221/4/4
f 221/4/4 220/4/4 222/4/4
f 219/4/4 221/4/4 223/4/4
f 221/3/4 222/3/4 223/3/4
f 223/3/4 222/3/4 224/3/4
f 219/4/4 223/4/4 225/4/4
f 223/4/4 224/4/4 225/4/4
f 225/4/4 224/4/4 226/4/4
f 219/4/4 225/4/4 227/4/4
f 225/3/4 226/3/4 227/3/4
f 227/3/4 226/3/4 228/3/4
f 219/4/4 227/4/4 229/4/4
f 227/4/4 228/4/4 229/4/4
f 229/4/4 228/4/4 230/4/4
f 233/4/5 232/4/5 231/4/5
f 234/4/5 232/4/5 233/4/5
f 235/4/5 233/4/5 231/4/5
f 236/4/5 233/4/5 235/4/5
f 237/4/5 232/4/5 234/4/5
f 238/4/5 232/4/5 237/4/5
f 243/4/5 240/4/5 239/4/5
f 244/4/5 240/4/5 243/4/5
f 245/4/5 242/4/5 241/4/5
f 246/4/5 242/4/5 245/4/5
f 251/4/5 248/4/5 247/4/5
f 252/4/5 250/4/5 249/4/5
f 253/4/5 251/4/5 247/4/5
f 253/4/5 252/4/5 251/4/5
f 254/4/5 250/4/5 252/4/5
f 254/4/5 252/4/5 253/4/5
f 257/4/5 256/4/5 255/4/5
f 258/4/5 256/4/5 257/4/5
f 259/4/5 258/4/5 257/4/5
f 260/4/5 258/4/5 259/4/5
f 261/4/5 260/4/5 259/4/5
f 262/4/5 260/4/5 261/4/5
f 263/4/5 262/4/5 261/4/5
f 264/4/5 262/4/5 263/4/5
f 265/4/5 264/4/5 263/4/5
f 266/4/5 264/4/5 265/4/5
f 271/4/5 268/4/5 267/4/5
f 272/4/5 268/4/5 271/4/5
f 273/4/5 270/4/5 269/4/5
f 274/4/5 270/4/5 273/4/5
f 279/4/5 276/4/5 275/4/5
f 280/4/5 276/4/5 279/4/5
f 281/4/5 278/4/5 277/4/5
f 282/4/5 278/4/5 281/4/5
f 283/4/6 284/4/6 289/4/6
f 284/1/6 285/1/6 290/1/6
f 289/4/6 284/4/6 290/4/6
f 285/4/6 286/4/6 291/4/6
f 290/1/6 285/1/6 291/1/6
f 286/1/6 287/1/6 292/1/6
f 291/4/6 286/4/6 292/4/6
f 287/4/6 288/4/6 293/4/6
f 292/1/6 287/1/6 293/1/6
f 293/4/6 288/4/6 294/4/6
f 295/4/6 296/4/6 301/4/6
f 296/3/6 297/3/6 302/3/6
f 301/4/6 296/4/6 302/4/6
f 297/4/6 298/4/6 303/4/6
f 302/3/6 297/3/6 303/3/6
f 298/3/6 299/3/6 304/3/6
f 303/4/6 298/4/6 304/4/6
f 299/4/6 300/4/6 305/4/6
f 304/3/6 299/3/6 305/3/6
f 305/4/6 300/4/6 306/4/6
f 307/4/6 308/4/6 309/4/6
f 309/4/6 308/4/6 310/4/6
f 310/4/6 308/4/6 311/4/6
f 311/4/6 308/4/6 312/4/6
f 307/4/6 309/4/6 313/4/6
f 312/4/6 308/4/6 314/4/6
f 307/4/6 313/4/6 315/4/6
f 314/4/6 308/4/6 316/4/6
f 307/4/6 315/4/6 317/4/6
f 316/4/6 308/4/6 318/4/6
f 307/4/6 317/4/6 319/4/6
f 318/4/6 308/4/6 320/4/6
f 307/4/6 319/4/6 321/4/6
f 320/4/6 308/4/6 324/4/6
f 322/4/6 323/4/6 325/4/6
f 323/4/6 324/4/6 325/4/6
f 307/4/6 321/4/6 325/4/6
f 321/4/6 322/4/6 325/4/6
f 324/4/6 308/4/6 326/4/6
f 325/4/6 324/4/6 326/4/6
f 327/4/6 328/4/6 331/4/6
f 328/2/6 329/2/6 332/2/6
f 331/4/6 328/4/6 332/4/6
f 329/4/6 330/4/6 333/4/6
f 332/2/6 329/2/6 333/2/6
f 333/4/6 330/4/6 334/4/6
f 335/4/6 336/4/6 339/4/6
f 336/2/6 337/2/6 340/2/6
f 339/4/6 336/4/6 340/4/6
f 337/4/6 338/4/6 341/4/6
f 340/2/6 337/2/6 341/2/6
f 341/4/6 338/4/6 342/4/6
f 343/4/6 344/4/6 347/4/6
f 344/2/6 345/2/6 348/2/6
f 347/4/6 344/4/6 348/4/6
f 345/4/6 346/4/6 349/4/6
f 348/2/6 345/2/6 349/2/6
f 349/4/6 346/4/6 350/4/6
f 351/4/6 352/4/6 353/4/6
f 353/4/6 352/4/6 354/4/6
