# MagicaVoxel @ Ephtracy

# material
mtllib car_body4_r.mtl
usemtl palette

# normals
vn -1 0 0
vn 1 0 0
vn 0 0 1
vn 0 0 -1
vn 0 -1 0
vn 0 1 0

# texcoords
vt 0.0449219 0.5
vt 0.587891 0.5
vt 0.841797 0.5
vt 0.849609 0.5

# verts
v -4 1 8
v -4 1 6
v -4 1 3
v -4 1 -3
v -4 1 -6
v -4 1 -8
v -4 3 8
v -4 3 7
v -4 3 6
v -4 3 3
v -4 3 -3
v -4 3 -6
v -4 4 7
v -4 4 6
v -4 4 4
v -4 4 1
v -4 5 6
v -4 5 5
v -4 5 -0
v -4 5 -3
v -4 5 -4
v -4 5 -7
v -4 7 5
v -4 7 4
v -4 7 1
v -4 7 -0
v -4 7 -3
v -4 7 -4
v -4 7 -7
v -4 7 -8
v -3 1 9
v -3 1 8
v -3 1 -8
v -3 1 -9
v -3 2 9
v -3 2 8
v -3 2 6
v -3 2 3
v -3 2 -3
v -3 2 -6
v -3 3 9
v -3 3 8
v -3 3 7
v -3 3 6
v -3 3 3
v -3 3 -3
v -3 3 -6
v -3 3 -8
v -3 3 -9
v -3 4 8
v -3 4 7
v -3 4 6
v -3 5 7
v -3 5 6
v -3 5 5
v -3 5 -8
v -3 5 -9
v -3 7 6
v -3 7 5
v -3 7 4
v -3 7 1
v -3 7 -0
v -3 7 -3
v -3 7 -4
v -3 7 -7
v -3 8 5
v -3 8 -7
v 3 1 8
v 3 1 6
v 3 1 3
v 3 1 -3
v 3 1 -6
v 3 1 -8
v 3 2 8
v 3 2 6
v 3 2 3
v 3 2 -3
v 3 2 -6
v 3 2 -8
v -3 1 8
v -3 1 6
v -3 1 3
v -3 1 -3
v -3 1 -6
v -3 1 -8
v -3 2 8
v -3 2 6
v -3 2 3
v -3 2 -3
v -3 2 -6
v -3 2 -8
v 3 1 9
v 3 1 8
v 3 1 -8
v 3 1 -9
v 3 2 9
v 3 2 8
v 3 2 6
v 3 2 3
v 3 2 -3
v 3 2 -6
v 3 3 9
v 3 3 8
v 3 3 7
v 3 3 6
v 3 3 3
v 3 3 -3
v 3 3 -6
v 3 3 -8
v 3 3 -9
v 3 4 8
v 3 4 7
v 3 4 6
v 3 5 7
v 3 5 6
v 3 5 5
v 3 5 -8
v 3 5 -9
v 3 7 6
v 3 7 5
v 3 7 4
v 3 7 1
v 3 7 -0
v 3 7 -3
v 3 7 -4
v 3 7 -7
v 3 8 5
v 3 8 -7
v 4 1 8
v 4 1 6
v 4 1 3
v 4 1 -3
v 4 1 -6
v 4 1 -8
v 4 3 8
v 4 3 7
v 4 3 6
v 4 3 3
v 4 3 -3
v 4 3 -6
v 4 4 7
v 4 4 6
v 4 4 4
v 4 4 1
v 4 5 6
v 4 5 5
v 4 5 -0
v 4 5 -3
v 4 5 -4
v 4 5 -7
v 4 7 5
v 4 7 4
v 4 7 1
v 4 7 -0
v 4 7 -3
v 4 7 -4
v 4 7 -7
v 4 7 -8
v -3 1 9
v -3 2 9
v -3 3 9
v -2 2 9
v -2 3 9
v 2 2 9
v 2 3 9
v 3 1 9
v 3 2 9
v 3 3 9
v -4 1 8
v -4 3 8
v -3 1 8
v -3 2 8
v -3 3 8
v -3 4 8
v -2 3 8
v -2 4 8
v 2 3 8
v 2 4 8
v 3 1 8
v 3 2 8
v 3 3 8
v 3 4 8
v 4 1 8
v 4 3 8
v -4 3 7
v -4 4 7
v -3 3 7
v -3 4 7
v -3 5 7
v -2 4 7
v 2 4 7
v 3 3 7
v 3 4 7
v 3 5 7
v 4 3 7
v 4 4 7
v -4 4 6
v -4 5 6
v -3 4 6
v -3 5 6
v -3 7 6
v -2 5 6
v -2 7 6
v 2 5 6
v 2 7 6
v 3 4 6
v 3 5 6
v 3 7 6
v 4 4 6
v 4 5 6
v -4 5 5
v -4 7 5
v -3 5 5
v -3 7 5
v -3 8 5
v -2 7 5
v 2 7 5
v 3 5 5
v 3 7 5
v 3 8 5
v 4 5 5
v 4 7 5
v -4 1 3
v -4 3 3
v -3 1 3
v -3 2 3
v -3 3 3
v 3 1 3
v 3 2 3
v 3 3 3
v 4 1 3
v 4 3 3
v -4 1 -6
v -4 3 -6
v -3 1 -6
v -3 2 -6
v -3 3 -6
v 3 1 -6
v 3 2 -6
v 3 3 -6
v 4 1 -6
v 4 3 -6
v -3 1 -8
v -3 2 -8
v 3 1 -8
v 3 2 -8
v -3 1 8
v -3 2 8
v 3 1 8
v 3 2 8
v -4 1 6
v -4 3 6
v -3 1 6
v -3 2 6
v -3 3 6
v 3 1 6
v 3 2 6
v 3 3 6
v 4 1 6
v 4 3 6
v -4 1 -3
v -4 3 -3
v -3 1 -3
v -3 2 -3
v -3 3 -3
v 3 1 -3
v 3 2 -3
v 3 3 -3
v 4 1 -3
v 4 3 -3
v -3 7 -7
v -3 8 -7
v -2 7 -7
v 2 7 -7
v 3 7 -7
v 3 8 -7
v -4 1 -8
v -4 7 -8
v -3 1 -8
v -3 3 -8
v -3 5 -8
v -2 5 -8
v -2 7 -8
v 2 5 -8
v 2 7 -8
v 3 1 -8
v 3 3 -8
v 3 5 -8
v 4 1 -8
v 4 7 -8
v -3 1 -9
v -3 3 -9
v -3 5 -9
v -2 3 -9
v -2 4 -9
v -2 5 -9
v 2 3 -9
v 2 4 -9
v 2 5 -9
v 3 1 -9
v 3 3 -9
v 3 5 -9
v -3 1 9
v 3 1 9
v -4 1 8
v -3 1 8
v 3 1 8
v 4 1 8
v -4 1 6
v -3 1 6
v 3 1 6
v 4 1 6
v -4 1 3
v -3 1 3
v 3 1 3
v 4 1 3
v -4 1 -3
v -3 1 -3
v 3 1 -3
v 4 1 -3
v -4 1 -6
v -3 1 -6
v 3 1 -6
v 4 1 -6
v -4 1 -8
v -3 1 -8
v 3 1 -8
v 4 1 -8
v -3 1 -9
v 3 1 -9
v -3 2 8
v 3 2 8
v -3 2 6
v 3 2 6
v -3 2 3
v 3 2 3
v -3 2 -3
v 3 2 -3
v -3 2 -6
v 3 2 -6
v -3 2 -8
v 3 2 -8
v -4 3 6
v -3 3 6
v 3 3 6
v 4 3 6
v -4 3 3
v -3 3 3
v 3 3 3
v 4 3 3
v -4 3 -3
v -3 3 -3
v 3 3 -3
v 4 3 -3
v -4 3 -6
v -3 3 -6
v 3 3 -6
v 4 3 -6
v -3 3 9
v -2 3 9
v 2 3 9
v 3 3 9
v -4 3 8
v -3 3 8
v -2 3 8
v 2 3 8
v 3 3 8
v 4 3 8
v -4 3 7
v -3 3 7
v 3 3 7
v 4 3 7
v -3 4 8
v -2 4 8
v 2 4 8
v 3 4 8
v -4 4 7
v -3 4 7
v -2 4 7
v 2 4 7
v 3 4 7
v 4 4 7
v -4 4 6
v -3 4 6
v 3 4 6
v 4 4 6
v -3 5 7
v 3 5 7
v -4 5 6
v -3 5 6
v -2 5 6
v 2 5 6
v 3 5 6
v 4 5 6
v -4 5 5
v -3 5 5
v 3 5 5
v 4 5 5
v -3 5 -8
v -2 5 -8
v 2 5 -8
v 3 5 -8
v -3 5 -9
v -2 5 -9
v 2 5 -9
v 3 5 -9
v -3 7 6
v -2 7 6
v 2 7 6
v 3 7 6
v -4 7 5
v -3 7 5
v -2 7 5
v 2 7 5
v 3 7 5
v 4 7 5
v -4 7 4
v -3 7 4
v 3 7 4
v 4 7 4
v -4 7 1
v -3 7 1
v 3 7 1
v 4 7 1
v -4 7 -0
v -3 7 -0
v 3 7 -0
v 4 7 -0
v -4 7 -3
v -3 7 -3
v 3 7 -3
v 4 7 -3
v -4 7 -4
v -3 7 -4
v 3 7 -4
v 4 7 -4
v -4 7 -7
v -3 7 -7
v -2 7 -7
v 2 7 -7
v 3 7 -7
v 4 7 -7
v -4 7 -8
v -2 7 -8
v 2 7 -8
v 4 7 -8
v -3 8 5
v 3 8 5
v -2 8 4
v 2 8 4
v -2 8 1
v 2 8 1
v -2 8 -1
v 2 8 -1
v -2 8 -3
v 2 8 -3
v -3 8 -7
v 3 8 -7

# faces
f 7/4/1 2/4/1 1/4/1
f 8/4/1 2/4/1 7/4/1
f 9/4/1 2/4/1 8/4/1
f 10/4/1 4/4/1 3/4/1
f 11/4/1 4/4/1 10/4/1
f 12/4/1 6/4/1 5/4/1
f 13/4/1 11/4/1 10/4/1
f 13/4/1 12/4/1 11/4/1
f 13/4/1 9/4/1 8/4/1
f 13/4/1 10/4/1 9/4/1
f 14/4/1 12/4/1 13/4/1
f 15/4/1 12/4/1 14/4/1
f 16/4/1 12/4/1 15/4/1
f 17/4/1 15/4/1 14/4/1
f 18/4/1 15/4/1 17/4/1
f 19/4/1 12/4/1 16/4/1
f 20/4/1 12/4/1 19/4/1
f 21/4/1 12/4/1 20/4/1
f 22/4/1 6/4/1 12/4/1
f 22/4/1 12/4/1 21/4/1
f 23/4/1 15/4/1 18/4/1
f 24/2/1 16/2/1 15/2/1
f 24/4/1 15/4/1 23/4/1
f 25/4/1 19/4/1 16/4/1
f 25/2/1 16/2/1 24/2/1
f 26/2/1 20/2/1 19/2/1
f 26/4/1 19/4/1 25/4/1
f 27/4/1 21/4/1 20/4/1
f 27/2/1 20/2/1 26/2/1
f 28/2/1 22/2/1 21/2/1
f 28/4/1 21/4/1 27/4/1
f 29/4/1 6/4/1 22/4/1
f 29/2/1 22/2/1 28/2/1
f 30/4/1 6/4/1 29/4/1
f 35/4/1 32/4/1 31/4/1
f 36/4/1 32/4/1 35/4/1
f 41/1/1 36/1/1 35/1/1
f 42/1/1 36/1/1 41/1/1
f 44/4/1 38/4/1 37/4/1
f 45/4/1 38/4/1 44/4/1
f 46/4/1 40/4/1 39/4/1
f 47/4/1 40/4/1 46/4/1
f 48/4/1 34/4/1 33/4/1
f 49/4/1 34/4/1 48/4/1
f 50/1/1 43/1/1 42/1/1
f 51/1/1 43/1/1 50/1/1
f 53/4/1 52/4/1 51/4/1
f 54/4/1 52/4/1 53/4/1
f 56/3/1 49/3/1 48/3/1
f 57/3/1 49/3/1 56/3/1
f 58/4/1 55/4/1 54/4/1
f 59/4/1 55/4/1 58/4/1
f 66/4/1 65/4/1 64/4/1
f 66/4/1 64/4/1 63/4/1
f 66/4/1 63/4/1 62/4/1
f 66/4/1 62/4/1 61/4/1
f 66/4/1 61/4/1 60/4/1
f 66/4/1 60/4/1 59/4/1
f 67/4/1 65/4/1 66/4/1
f 74/4/1 69/4/1 68/4/1
f 75/4/1 69/4/1 74/4/1
f 76/4/1 71/4/1 70/4/1
f 77/4/1 71/4/1 76/4/1
f 78/4/1 73/4/1 72/4/1
f 79/4/1 73/4/1 78/4/1
f 80/4/2 81/4/2 86/4/2
f 86/4/2 81/4/2 87/4/2
f 82/4/2 83/4/2 88/4/2
f 88/4/2 83/4/2 89/4/2
f 84/4/2 85/4/2 90/4/2
f 90/4/2 85/4/2 91/4/2
f 92/4/2 93/4/2 96/4/2
f 96/4/2 93/4/2 97/4/2
f 96/1/2 97/1/2 102/1/2
f 102/1/2 97/1/2 103/1/2
f 98/4/2 99/4/2 105/4/2
f 105/4/2 99/4/2 106/4/2
f 100/4/2 101/4/2 107/4/2
f 107/4/2 101/4/2 108/4/2
f 94/4/2 95/4/2 109/4/2
f 109/4/2 95/4/2 110/4/2
f 103/1/2 104/1/2 111/1/2
f 111/1/2 104/1/2 112/1/2
f 112/4/2 113/4/2 114/4/2
f 114/4/2 113/4/2 115/4/2
f 109/3/2 110/3/2 117/3/2
f 117/3/2 110/3/2 118/3/2
f 115/4/2 116/4/2 119/4/2
f 119/4/2 116/4/2 120/4/2
f 125/4/2 126/4/2 127/4/2
f 124/4/2 125/4/2 127/4/2
f 123/4/2 124/4/2 127/4/2
f 122/4/2 123/4/2 127/4/2
f 121/4/2 122/4/2 127/4/2
f 120/4/2 121/4/2 127/4/2
f 127/4/2 126/4/2 128/4/2
f 129/4/2 130/4/2 135/4/2
f 135/4/2 130/4/2 136/4/2
f 136/4/2 130/4/2 137/4/2
f 131/4/2 132/4/2 138/4/2
f 138/4/2 132/4/2 139/4/2
f 133/4/2 134/4/2 140/4/2
f 138/4/2 139/4/2 141/4/2
f 139/4/2 140/4/2 141/4/2
f 136/4/2 137/4/2 141/4/2
f 137/4/2 138/4/2 141/4/2
f 141/4/2 140/4/2 142/4/2
f 142/4/2 140/4/2 143/4/2
f 143/4/2 140/4/2 144/4/2
f 142/4/2 143/4/2 145/4/2
f 145/4/2 143/4/2 146/4/2
f 144/4/2 140/4/2 147/4/2
f 147/4/2 140/4/2 148/4/2
f 148/4/2 140/4/2 149/4/2
f 140/4/2 134/4/2 150/4/2
f 149/4/2 140/4/2 150/4/2
f 146/4/2 143/4/2 151/4/2
f 143/2/2 144/2/2 152/2/2
f 151/4/2 143/4/2 152/4/2
f 144/4/2 147/4/2 153/4/2
f 152/2/2 144/2/2 153/2/2
f 147/2/2 148/2/2 154/2/2
f 153/4/2 147/4/2 154/4/2
f 148/4/2 149/4/2 155/4/2
f 154/2/2 148/2/2 155/2/2
f 149/2/2 150/2/2 156/2/2
f 155/4/2 149/4/2 156/4/2
f 150/4/2 134/4/2 157/4/2
f 156/2/2 150/2/2 157/2/2
f 157/4/2 134/4/2 158/4/2
f 162/4/3 160/4/3 159/4/3
f 162/1/3 161/1/3 160/1/3
f 163/1/3 161/1/3 162/1/3
f 164/4/3 162/4/3 159/4/3
f 164/4/3 163/4/3 162/4/3
f 165/4/3 163/4/3 164/4/3
f 166/4/3 164/4/3 159/4/3
f 167/1/3 165/1/3 164/1/3
f 167/4/3 164/4/3 166/4/3
f 168/1/3 165/1/3 167/1/3
f 171/4/3 170/4/3 169/4/3
f 172/4/3 170/4/3 171/4/3
f 173/4/3 170/4/3 172/4/3
f 175/1/3 174/1/3 173/1/3
f 176/1/3 174/1/3 175/1/3
f 177/4/3 176/4/3 175/4/3
f 178/4/3 176/4/3 177/4/3
f 181/1/3 178/1/3 177/1/3
f 182/1/3 178/1/3 181/1/3
f 183/4/3 180/4/3 179/4/3
f 183/4/3 181/4/3 180/4/3
f 184/4/3 181/4/3 183/4/3
f 187/4/3 186/4/3 185/4/3
f 188/4/3 186/4/3 187/4/3
f 190/4/3 189/4/3 188/4/3
f 191/4/3 189/4/3 190/4/3
f 193/4/3 189/4/3 191/4/3
f 194/4/3 189/4/3 193/4/3
f 195/4/3 193/4/3 192/4/3
f 196/4/3 193/4/3 195/4/3
f 199/4/3 198/4/3 197/4/3
f 200/4/3 198/4/3 199/4/3
f 202/4/3 201/4/3 200/4/3
f 203/4/3 201/4/3 202/4/3
f 204/2/3 203/2/3 202/2/3
f 205/2/3 203/2/3 204/2/3
f 207/4/3 205/4/3 204/4/3
f 208/4/3 205/4/3 207/4/3
f 209/4/3 207/4/3 206/4/3
f 210/4/3 207/4/3 209/4/3
f 213/4/3 212/4/3 211/4/3
f 214/4/3 212/4/3 213/4/3
f 216/4/3 215/4/3 214/4/3
f 217/4/3 215/4/3 216/4/3
f 219/4/3 215/4/3 217/4/3
f 220/4/3 215/4/3 219/4/3
f 221/4/3 219/4/3 218/4/3
f 222/4/3 219/4/3 221/4/3
f 225/4/3 224/4/3 223/4/3
f 226/4/3 224/4/3 225/4/3
f 227/4/3 224/4/3 226/4/3
f 231/4/3 229/4/3 228/4/3
f 231/4/3 230/4/3 229/4/3
f 232/4/3 230/4/3 231/4/3
f 235/4/3 234/4/3 233/4/3
f 236/4/3 234/4/3 235/4/3
f 237/4/3 234/4/3 236/4/3
f 241/4/3 239/4/3 238/4/3
f 241/4/3 240/4/3 239/4/3
f 242/4/3 240/4/3 241/4/3
f 245/4/3 244/4/3 243/4/3
f 246/4/3 244/4/3 245/4/3
f 247/4/4 248/4/4 249/4/4
f 249/4/4 248/4/4 250/4/4
f 251/4/4 252/4/4 253/4/4
f 253/4/4 252/4/4 254/4/4
f 254/4/4 252/4/4 255/4/4
f 256/4/4 257/4/4 259/4/4
f 257/4/4 258/4/4 259/4/4
f 259/4/4 258/4/4 260/4/4
f 261/4/4 262/4/4 263/4/4
f 263/4/4 262/4/4 264/4/4
f 264/4/4 262/4/4 265/4/4
f 266/4/4 267/4/4 269/4/4
f 267/4/4 268/4/4 269/4/4
f 269/4/4 268/4/4 270/4/4
f 271/4/4 272/4/4 273/4/4
f 273/4/4 272/4/4 274/4/4
f 274/4/4 272/4/4 275/4/4
f 275/4/4 272/4/4 276/4/4
f 277/4/4 278/4/4 279/4/4
f 279/4/4 278/4/4 280/4/4
f 280/4/4 278/4/4 281/4/4
f 281/4/4 278/4/4 282/4/4
f 282/4/4 278/4/4 283/4/4
f 282/2/4 283/2/4 284/2/4
f 284/2/4 283/2/4 285/2/4
f 284/4/4 285/4/4 288/4/4
f 286/4/4 287/4/4 289/4/4
f 287/4/4 288/4/4 289/4/4
f 288/4/4 285/4/4 290/4/4
f 289/4/4 288/4/4 290/4/4
f 291/4/4 292/4/4 294/4/4
f 292/3/4 293/3/4 294/3/4
f 294/3/4 293/3/4 295/3/4
f 295/3/4 293/3/4 296/3/4
f 291/4/4 294/4/4 297/4/4
f 294/4/4 295/4/4 297/4/4
f 295/2/4 296/2/4 298/2/4
f 297/4/4 295/4/4 298/4/4
f 298/2/4 296/2/4 299/2/4
f 291/4/4 297/4/4 300/4/4
f 297/3/4 298/3/4 301/3/4
f 300/4/4 297/4/4 301/4/4
f 298/3/4 299/3/4 301/3/4
f 301/3/4 299/3/4 302/3/4
f 306/4/5 304/4/5 303/4/5
f 307/4/5 304/4/5 306/4/5
f 309/4/5 306/4/5 305/4/5
f 310/4/5 306/4/5 309/4/5
f 311/4/5 308/4/5 307/4/5
f 312/4/5 308/4/5 311/4/5
f 317/4/5 314/4/5 313/4/5
f 318/4/5 314/4/5 317/4/5
f 319/4/5 316/4/5 315/4/5
f 320/4/5 316/4/5 319/4/5
f 325/4/5 322/4/5 321/4/5
f 326/4/5 322/4/5 325/4/5
f 327/4/5 324/4/5 323/4/5
f 328/4/5 324/4/5 327/4/5
f 329/4/5 327/4/5 326/4/5
f 330/4/5 327/4/5 329/4/5
f 333/4/5 332/4/5 331/4/5
f 334/4/5 332/4/5 333/4/5
f 335/4/5 334/4/5 333/4/5
f 336/4/5 334/4/5 335/4/5
f 337/4/5 336/4/5 335/4/5
f 338/4/5 336/4/5 337/4/5
f 339/4/5 338/4/5 337/4/5
f 340/4/5 338/4/5 339/4/5
f 341/4/5 340/4/5 339/4/5
f 342/4/5 340/4/5 341/4/5
f 347/4/5 344/4/5 343/4/5
f 348/4/5 344/4/5 347/4/5
f 349/4/5 346/4/5 345/4/5
f 350/4/5 346/4/5 349/4/5
f 355/4/5 352/4/5 351/4/5
f 356/4/5 352/4/5 355/4/5
f 357/4/5 354/4/5 353/4/5
f 358/4/5 354/4/5 357/4/5
f 359/1/6 360/1/6 364/1/6
f 360/4/6 361/4/6 365/4/6
f 364/1/6 360/1/6 365/1/6
f 361/1/6 362/1/6 366/1/6
f 365/4/6 361/4/6 366/4/6
f 366/1/6 362/1/6 367/1/6
f 363/4/6 364/4/6 369/4/6
f 369/4/6 364/4/6 370/4/6
f 367/4/6 368/4/6 371/4/6
f 371/4/6 368/4/6 372/4/6
f 373/1/6 374/1/6 378/1/6
f 374/4/6 375/4/6 379/4/6
f 378/1/6 374/1/6 379/1/6
f 375/1/6 376/1/6 380/1/6
f 379/4/6 375/4/6 380/4/6
f 380/1/6 376/1/6 381/1/6
f 377/4/6 378/4/6 383/4/6
f 383/4/6 378/4/6 384/4/6
f 381/4/6 382/4/6 385/4/6
f 385/4/6 382/4/6 386/4/6
f 387/4/6 388/4/6 390/4/6
f 390/4/6 388/4/6 391/4/6
f 391/4/6 388/4/6 392/4/6
f 392/4/6 388/4/6 393/4/6
f 389/4/6 390/4/6 395/4/6
f 395/4/6 390/4/6 396/4/6
f 393/4/6 394/4/6 397/4/6
f 397/4/6 394/4/6 398/4/6
f 399/3/6 400/3/6 403/3/6
f 400/2/6 401/2/6 404/2/6
f 403/3/6 400/3/6 404/3/6
f 401/3/6 402/3/6 405/3/6
f 404/2/6 401/2/6 405/2/6
f 405/3/6 402/3/6 406/3/6
f 407/4/6 408/4/6 412/4/6
f 408/2/6 409/2/6 413/2/6
f 412/4/6 408/4/6 413/4/6
f 409/4/6 410/4/6 414/4/6
f 413/2/6 409/2/6 414/2/6
f 414/4/6 410/4/6 415/4/6
f 411/4/6 412/4/6 417/4/6
f 417/4/6 412/4/6 418/4/6
f 415/4/6 416/4/6 419/4/6
f 419/4/6 416/4/6 420/4/6
f 417/2/6 418/2/6 421/2/6
f 421/2/6 418/2/6 422/2/6
f 419/2/6 420/2/6 423/2/6
f 423/2/6 420/2/6 424/2/6
f 421/4/6 422/4/6 425/4/6
f 425/4/6 422/4/6 426/4/6
f 423/4/6 424/4/6 427/4/6
f 427/4/6 424/4/6 428/4/6
f 425/2/6 426/2/6 429/2/6
f 429/2/6 426/2/6 430/2/6
f 427/2/6 428/2/6 431/2/6
f 431/2/6 428/2/6 432/2/6
f 429/4/6 430/4/6 433/4/6
f 433/4/6 430/4/6 434/4/6
f 431/4/6 432/4/6 435/4/6
f 435/4/6 432/4/6 436/4/6
f 433/2/6 434/2/6 437/2/6
f 437/2/6 434/2/6 438/2/6
f 435/2/6 436/2/6 441/2/6
f 441/2/6 436/2/6 442/2/6
f 437/4/6 438/4/6 443/4/6
f 438/4/6 439/4/6 443/4/6
f 439/2/6 440/2/6 444/2/6
f 443/4/6 439/4/6 444/4/6
f 441/4/6 442/4/6 445/4/6
f 444/2/6 440/2/6 445/2/6
f 440/4/6 441/4/6 445/4/6
f 445/4/6 442/4/6 446/4/6
f 447/4/6 448/4/6 449/4/6
f 449/4/6 448/4/6 450/4/6
f 447/4/6 449/4/6 451/4/6
f 449/2/6 450/2/6 451/2/6
f 450/4/6 448/4/6 452/4/6
f 451/2/6 450/2/6 452/2/6
f 447/4/6 451/4/6 453/4/6
f 451/4/6 452/4/6 453/4/6
f 452/4/6 448/4/6 454/4/6
f 453/4/6 452/4/6 454/4/6
f 447/4/6 453/4/6 455/4/6
f 453/2/6 454/2/6 455/2/6
f 454/4/6 448/4/6 456/4/6
f 455/2/6 454/2/6 456/2/6
f 447/4/6 455/4/6 457/4/6
f 455/4/6 456/4/6 457/4/6
f 456/4/6 448/4/6 458/4/6
f 457/4/6 456/4/6 458/4/6
