# MagicaVoxel @ Ephtracy

# material
mtllib car_body2_r.mtl
usemtl palette

# normals
vn -1 0 0
vn 1 0 0
vn 0 0 1
vn 0 0 -1
vn 0 -1 0
vn 0 1 0

# texcoords
vt 0.0449219 0.5
vt 0.587891 0.5
vt 0.841797 0.5
vt 0.849609 0.5
vt 0.982422 0.5

# verts
v -4 1 9
v -4 1 8
v -4 1 6
v -4 2 -8
v -4 2 -9
v -4 3 9
v -4 3 8
v -4 3 6
v -4 3 -8
v -4 5 8
v -4 5 4
v -4 5 3
v -4 5 -9
v -4 7 8
v -4 7 7
v -4 8 9
v -4 8 8
v -4 8 7
v -4 8 4
v -4 9 8
v -4 9 3
v -3 2 6
v -3 2 -8
v -3 3 6
v -3 3 -8
v 3 1 7
v 3 1 6
v 3 2 7
v 3 2 6
v 3 3 3
v 3 3 -8
v 3 5 3
v 3 5 -8
v -3 1 7
v -3 1 6
v -3 2 7
v -3 2 6
v -3 3 3
v -3 3 -8
v -3 5 3
v -3 5 -8
v 3 2 6
v 3 2 -8
v 3 3 6
v 3 3 -8
v 4 1 9
v 4 1 8
v 4 1 6
v 4 2 -8
v 4 2 -9
v 4 3 9
v 4 3 8
v 4 3 6
v 4 3 -8
v 4 5 8
v 4 5 4
v 4 5 3
v 4 5 -9
v 4 7 8
v 4 7 7
v 4 8 9
v 4 8 8
v 4 8 7
v 4 8 4
v 4 9 8
v 4 9 3
v -4 1 9
v -4 3 9
v -4 8 9
v -3 2 9
v -3 3 9
v -3 5 9
v -3 8 9
v -1 2 9
v -1 3 9
v 1 2 9
v 1 3 9
v 3 2 9
v 3 3 9
v 3 5 9
v 3 8 9
v 4 1 9
v 4 3 9
v 4 8 9
v -4 8 8
v -4 9 8
v -3 8 8
v 3 8 8
v 4 8 8
v 4 9 8
v -4 2 -8
v -4 3 -8
v -3 2 -8
v -3 3 -8
v -3 5 -8
v 3 2 -8
v 3 3 -8
v 3 5 -8
v 4 2 -8
v 4 3 -8
v -3 1 7
v -3 2 7
v 3 1 7
v 3 2 7
v -4 1 6
v -4 3 6
v -3 1 6
v -3 2 6
v -3 3 6
v 3 1 6
v 3 2 6
v 3 3 6
v 4 1 6
v 4 3 6
v -4 5 3
v -4 9 3
v -3 3 3
v -3 5 3
v -2 6 3
v -2 8 3
v 2 6 3
v 2 8 3
v 3 3 3
v 3 5 3
v 4 5 3
v 4 9 3
v -4 2 -9
v -4 5 -9
v -3 2 -9
v -3 3 -9
v -2 2 -9
v -2 3 -9
v 2 2 -9
v 2 3 -9
v 3 2 -9
v 3 3 -9
v 4 2 -9
v 4 5 -9
v -4 1 9
v 4 1 9
v -4 1 8
v 4 1 8
v -3 1 7
v 3 1 7
v -4 1 6
v -3 1 6
v 3 1 6
v 4 1 6
v -3 2 7
v 3 2 7
v -3 2 6
v 3 2 6
v -4 2 -8
v -3 2 -8
v -2 2 -8
v 2 2 -8
v 3 2 -8
v 4 2 -8
v -4 2 -9
v -3 2 -9
v -2 2 -9
v 2 2 -9
v 3 2 -9
v 4 2 -9
v -4 3 6
v -3 3 6
v 3 3 6
v 4 3 6
v -4 3 -8
v -3 3 -8
v 3 3 -8
v 4 3 -8
v -3 3 3
v 3 3 3
v -3 3 -8
v 3 3 -8
v -4 5 3
v -3 5 3
v 3 5 3
v 4 5 3
v -3 5 -8
v 3 5 -8
v -4 5 -9
v 4 5 -9
v -4 8 9
v -3 8 9
v 3 8 9
v 4 8 9
v -4 8 8
v -3 8 8
v 3 8 8
v 4 8 8
v -4 9 8
v 4 9 8
v -4 9 3
v 4 9 3

# faces
f 6/5/1 2/5/1 1/5/1
f 7/4/1 3/4/1 2/4/1
f 7/5/1 2/5/1 6/5/1
f 8/4/1 3/4/1 7/4/1
f 9/4/1 5/4/1 4/4/1
f 10/4/1 8/4/1 7/4/1
f 10/4/1 9/4/1 8/4/1
f 10/4/1 7/4/1 6/4/1
f 11/4/1 9/4/1 10/4/1
f 12/4/1 9/4/1 11/4/1
f 13/4/1 5/4/1 9/4/1
f 13/4/1 9/4/1 12/4/1
f 14/4/1 10/4/1 6/4/1
f 14/2/1 11/2/1 10/2/1
f 15/2/1 11/2/1 14/2/1
f 16/4/1 14/4/1 6/4/1
f 16/4/1 15/4/1 14/4/1
f 17/4/1 15/4/1 16/4/1
f 18/2/1 11/2/1 15/2/1
f 18/4/1 15/4/1 17/4/1
f 19/4/1 12/4/1 11/4/1
f 19/2/1 11/2/1 18/2/1
f 20/4/1 18/4/1 17/4/1
f 20/4/1 19/4/1 18/4/1
f 21/4/1 12/4/1 19/4/1
f 21/4/1 19/4/1 20/4/1
f 24/4/1 23/4/1 22/4/1
f 25/4/1 23/4/1 24/4/1
f 28/4/1 27/4/1 26/4/1
f 29/4/1 27/4/1 28/4/1
f 32/4/1 31/4/1 30/4/1
f 33/4/1 31/4/1 32/4/1
f 34/4/2 35/4/2 36/4/2
f 36/4/2 35/4/2 37/4/2
f 38/4/2 39/4/2 40/4/2
f 40/4/2 39/4/2 41/4/2
f 42/4/2 43/4/2 44/4/2
f 44/4/2 43/4/2 45/4/2
f 46/5/2 47/5/2 51/5/2
f 47/4/2 48/4/2 52/4/2
f 51/5/2 47/5/2 52/5/2
f 52/4/2 48/4/2 53/4/2
f 49/4/2 50/4/2 54/4/2
f 52/4/2 53/4/2 55/4/2
f 53/4/2 54/4/2 55/4/2
f 51/4/2 52/4/2 55/4/2
f 55/4/2 54/4/2 56/4/2
f 56/4/2 54/4/2 57/4/2
f 54/4/2 50/4/2 58/4/2
f 57/4/2 54/4/2 58/4/2
f 51/4/2 55/4/2 59/4/2
f 55/2/2 56/2/2 59/2/2
f 59/2/2 56/2/2 60/2/2
f 51/4/2 59/4/2 61/4/2
f 59/4/2 60/4/2 61/4/2
f 61/4/2 60/4/2 62/4/2
f 60/2/2 56/2/2 63/2/2
f 62/4/2 60/4/2 63/4/2
f 56/4/2 57/4/2 64/4/2
f 63/2/2 56/2/2 64/2/2
f 62/4/2 63/4/2 65/4/2
f 63/4/2 64/4/2 65/4/2
f 64/4/2 57/4/2 66/4/2
f 65/4/2 64/4/2 66/4/2
f 70/5/3 68/5/3 67/5/3
f 71/4/3 69/4/3 68/4/3
f 71/5/3 68/5/3 70/5/3
f 72/4/3 69/4/3 71/4/3
f 73/4/3 69/4/3 72/4/3
f 74/5/3 70/5/3 67/5/3
f 74/1/3 71/1/3 70/1/3
f 75/4/3 72/4/3 71/4/3
f 75/1/3 71/1/3 74/1/3
f 76/5/3 74/5/3 67/5/3
f 76/5/3 75/5/3 74/5/3
f 77/4/3 72/4/3 75/4/3
f 77/5/3 75/5/3 76/5/3
f 78/5/3 76/5/3 67/5/3
f 78/1/3 77/1/3 76/1/3
f 79/4/3 72/4/3 77/4/3
f 79/1/3 77/1/3 78/1/3
f 80/2/3 73/2/3 72/2/3
f 80/4/3 72/4/3 79/4/3
f 81/2/3 73/2/3 80/2/3
f 82/5/3 79/5/3 78/5/3
f 82/5/3 78/5/3 67/5/3
f 83/4/3 81/4/3 80/4/3
f 83/5/3 79/5/3 82/5/3
f 83/4/3 80/4/3 79/4/3
f 84/4/3 81/4/3 83/4/3
f 87/4/3 86/4/3 85/4/3
f 88/4/3 86/4/3 87/4/3
f 89/4/3 86/4/3 88/4/3
f 90/4/3 86/4/3 89/4/3
f 93/4/3 92/4/3 91/4/3
f 94/4/3 92/4/3 93/4/3
f 97/4/3 95/4/3 94/4/3
f 98/4/3 95/4/3 97/4/3
f 99/4/3 97/4/3 96/4/3
f 100/4/3 97/4/3 99/4/3
f 101/4/4 102/4/4 103/4/4
f 103/4/4 102/4/4 104/4/4
f 105/4/4 106/4/4 107/4/4
f 107/4/4 106/4/4 108/4/4
f 108/4/4 106/4/4 109/4/4
f 110/4/4 111/4/4 113/4/4
f 111/4/4 112/4/4 113/4/4
f 113/4/4 112/4/4 114/4/4
f 115/4/4 116/4/4 118/4/4
f 118/4/4 116/4/4 119/4/4
f 117/4/4 118/4/4 119/4/4
f 119/4/4 116/4/4 120/4/4
f 117/4/4 119/4/4 121/4/4
f 119/2/4 120/2/4 121/2/4
f 120/4/4 116/4/4 122/4/4
f 121/2/4 120/2/4 122/2/4
f 117/4/4 121/4/4 123/4/4
f 121/4/4 122/4/4 123/4/4
f 123/4/4 122/4/4 124/4/4
f 124/4/4 122/4/4 125/4/4
f 122/4/4 116/4/4 126/4/4
f 125/4/4 122/4/4 126/4/4
f 127/4/4 128/4/4 129/4/4
f 129/4/4 128/4/4 130/4/4
f 129/3/4 130/3/4 131/3/4
f 130/4/4 128/4/4 132/4/4
f 131/3/4 130/3/4 132/3/4
f 131/4/4 132/4/4 133/4/4
f 132/4/4 128/4/4 134/4/4
f 133/4/4 132/4/4 134/4/4
f 133/3/4 134/3/4 135/3/4
f 134/4/4 128/4/4 136/4/4
f 135/3/4 134/3/4 136/3/4
f 135/4/4 136/4/4 137/4/4
f 136/4/4 128/4/4 138/4/4
f 137/4/4 136/4/4 138/4/4
f 141/5/5 140/5/5 139/5/5
f 142/5/5 140/5/5 141/5/5
f 143/4/5 142/4/5 141/4/5
f 144/4/5 142/4/5 143/4/5
f 145/4/5 143/4/5 141/4/5
f 146/4/5 143/4/5 145/4/5
f 147/4/5 142/4/5 144/4/5
f 148/4/5 142/4/5 147/4/5
f 151/4/5 150/4/5 149/4/5
f 152/4/5 150/4/5 151/4/5
f 154/4/5 152/4/5 151/4/5
f 155/4/5 152/4/5 154/4/5
f 156/4/5 152/4/5 155/4/5
f 157/4/5 152/4/5 156/4/5
f 159/4/5 154/4/5 153/4/5
f 160/3/5 155/3/5 154/3/5
f 160/4/5 154/4/5 159/4/5
f 161/4/5 156/4/5 155/4/5
f 161/3/5 155/3/5 160/3/5
f 162/3/5 157/3/5 156/3/5
f 162/4/5 156/4/5 161/4/5
f 163/4/5 158/4/5 157/4/5
f 163/3/5 157/3/5 162/3/5
f 164/4/5 158/4/5 163/4/5
f 169/4/5 166/4/5 165/4/5
f 170/4/5 166/4/5 169/4/5
f 171/4/5 168/4/5 167/4/5
f 172/4/5 168/4/5 171/4/5
f 173/4/6 174/4/6 175/4/6
f 175/4/6 174/4/6 176/4/6
f 177/4/6 178/4/6 181/4/6
f 179/4/6 180/4/6 182/4/6
f 177/4/6 181/4/6 183/4/6
f 181/4/6 182/4/6 183/4/6
f 182/4/6 180/4/6 184/4/6
f 183/4/6 182/4/6 184/4/6
f 185/4/6 186/4/6 189/4/6
f 186/2/6 187/2/6 190/2/6
f 189/4/6 186/4/6 190/4/6
f 187/4/6 188/4/6 191/4/6
f 190/2/6 187/2/6 191/2/6
f 191/4/6 188/4/6 192/4/6
f 193/4/6 194/4/6 195/4/6
f 195/4/6 194/4/6 196/4/6
